{
  "orderType": null,
  "extendid": null,
  "leftover": 10,
  "msgType": "success",
  "data": null,
  "datas": [{
    "xg_id": "admin",
    "sc_bs": "0",
    "cr_id": "2",
    "js_mc": "admin",
    "bz": "管理员13",
    "zy_id":"roleadd",
    "js_lx": "0",
    "resource_id":"roleadd",
    "js_id": 1,
    "xg_sj": 1533633615000,
    "cr_sj": 1494831514000
  }, {
    "xg_id": "admin",
    "sc_bs": "0",
    "cr_id": "xuweiwei",
    "js_mc": "医保办",
    "bz": "医保办1",
    "js_lx": "1",
    "js_id": 2,
    "xg_sj": 1531670400000,
    "cr_sj": 1504145677000
  }, {
    "xg_id": "tiansheng",
    "sc_bs": "0",
    "cr_id": "xuweiwei",
    "js_mc": "医生",
    "bz": "医生",
    "js_lx": "1",
    "js_id": 3,
    "xg_sj": 1508737113000,
    "cr_sj": 1508394084000
  }, {
    "xg_id": "admin",
    "sc_bs": "0",
    "cr_id": "huanglijie",
    "js_mc": "我是角色名称1",
    "bz": null,
    "js_lx": "1",
    "js_id": 4,
    "xg_sj": 1531756800000,
    "cr_sj": 1528905600000
  }, {
    "xg_id": "sundeqian",
    "sc_bs": "0",
    "cr_id": "sundeqian",
    "js_mc": "test11",
    "bz": "test1",
    "js_lx": "1",
    "js_id": 5,
    "xg_sj": 1528905600000,
    "cr_sj": 1528905600000
  }, {
    "xg_id": null,
    "sc_bs": "0",
    "cr_id": "admin",
    "js_mc": "角色1",
    "bz": "角色1",
    "js_lx": "1",
    "js_id": 6,
    "xg_sj": 1531756800000,
    "cr_sj": 1531152000000
  }, {
    "xg_id": null,
    "sc_bs": "0",
    "cr_id": "admin",
    "js_mc": "asdf",
    "bz": "asdf",
    "js_lx": "1",
    "js_id": 7,
    "xg_sj": 1531756800000,
    "cr_sj": 1531670400000
  }, {
    "xg_id": "test",
    "sc_bs": "0",
    "cr_id": "admin",
    "js_mc": "rter1",
    "bz": "ere3",
    "js_lx": "1",
    "js_id": 8,
    "xg_sj": 1532496102000,
    "cr_sj": 1531670400000
  }, {
    "xg_id": "test",
    "sc_bs": "0",
    "cr_id": "admin",
    "js_mc": "fasa",
    "bz": "dsass",
    "js_lx": "1",
    "js_id": 9,
    "xg_sj": 1532402281000,
    "cr_sj": 1531670400000
  }, {
    "xg_id": "admin",
    "sc_bs": "0",
    "cr_id": "admin",
    "js_mc": "fdsa111",
    "bz": "fds",
    "js_lx": "1",
    "js_id": 10,
    "xg_sj": 1533808385000,
    "cr_sj": 1531756800000
  }],
  "totalPage": 3,
  "msgDetail": null,
  "pageSize": 10,
  "paging": null,
  "sort": null,
  "pageTo": 10,
  "pageFrom": 1,
  "total": 21,
  "msgContent": null,
  "pageIndex": 1,
  "sortType": null,
  "order": null,
  "status": 0
}