{
  "orderType": null,
  "extendid": null,
  "leftover": 10,
  "msgType": "success",
  "data": null,
  "datas": [
    {
      "xg_id": "aiyingya",
      "cr_id": null,
      "sc_bs": "0",
      "mk_mc": "基础服务管理",
      "sj_mk_mc": null,
      "mk_rk": "/system",
      "px": 0,
      "mk_code": "basicServiceManagement",
      "xg_sj": 1557305610000,
      "tb": "fa-list-alt",
      "mk_id": 3,
      "cr_sj": null,
      "bz": "基础服务管理1",
      "sj_mk_id": 0
    },
    {
      "xg_id": "aiyingya",
      "cr_id": null,
      "sc_bs": "0",
      "mk_mc": "用户管理",
      "sj_mk_mc": "基础服务管理",
      "mk_rk": "/system/user",
      "px": 0,
      "mk_code": "basicService_user",
      "xg_sj": 1557305905000,
      "tb": "fa-circle-o-notch",
      "mk_id": 7,
      "cr_sj": null,
      "bz": "用户管理",
      "sj_mk_id": 3
    },
    {
      "xg_id": "aiyingya",
      "cr_id": null,
      "sc_bs": "0",
      "mk_mc": "系统组织",
      "sj_mk_mc": "基础服务管理",
      "mk_rk": "/system/organization",
      "px": 0,
      "mk_code": "basicService_organization",
      "xg_sj": 1557305634000,
      "tb": "fa fa-eercast",
      "mk_id": 40,
      "cr_sj": null,
      "bz": "系统组织",
      "sj_mk_id": 3
    },
    {
      "xg_id": "aiyingya",
      "cr_id": null,
      "sc_bs": "0",
      "mk_mc": "菜单管理",
      "sj_mk_mc": "基础服务管理",
      "mk_rk": "/system/module",
      "px": 0,
      "mk_code": "basicService_module",
      "xg_sj": 1557305649000,
      "tb": "fa fa-signal",
      "mk_id": 84,
      "cr_sj": null,
      "bz": "菜单管理1",
      "sj_mk_id": 3
    },
    {
      "xg_id": "aiyingya",
      "cr_id": "test",
      "sc_bs": "0",
      "mk_mc": "字典管理",
      "sj_mk_mc": "基础服务管理",
      "mk_rk": "/system/dict",
      "px": 0,
      "mk_code": "basicService_dict",
      "xg_sj": 1557305662000,
      "tb": "fa fa-users",
      "mk_id": 85,
      "cr_sj": 1532329608000,
      "bz": "字典管理",
      "sj_mk_id": 3
    },
    {
      "xg_id": "aiyingya",
      "cr_id": "test",
      "sc_bs": "0",
      "mk_mc": "配置中心管理",
      "sj_mk_mc": null,
      "mk_rk": "/system/bzzx",
      "px": 0,
      "mk_code": "ConfigurationCenterManagement",
      "xg_sj": 1557741833000,
      "tb": "fa fa-eercast",
      "mk_id": 102,
      "cr_sj": 1532598716000,
      "bz": "配置中心管理配置中心管理配置中心管理kokokokkokokokokoooooooooooooooooooooooooo",
      "sj_mk_id": 0
    },
    {
      "xg_id": "admin",
      "cr_id": "admin",
      "sc_bs": "0",
      "mk_mc": "节点管理",
      "sj_mk_mc": "配置中心管理",
      "mk_rk": null,
      "px": 10,
      "mk_code": "basicService_config",
      "xg_sj": 1533177072000,
      "tb": "fa fa-cog",
      "mk_id": 103,
      "cr_sj": 1533177072000,
      "bz": "配置管理",
      "sj_mk_id": 102
    },
    {
      "xg_id": "admin",
      "cr_id": "admin",
      "sc_bs": "0",
      "mk_mc": "应用管理",
      "sj_mk_mc": "配置中心管理",
      "mk_rk": null,
      "px": 9,
      "mk_code": "basicService_application",
      "xg_sj": 1533523870000,
      "tb": "fa fa-eercast",
      "mk_id": 104,
      "cr_sj": 1533178434000,
      "bz": "应用管理",
      "sj_mk_id": 102
    },
    {
      "xg_id": "admin",
      "cr_id": "admin",
      "sc_bs": "0",
      "mk_mc": "ZK管理",
      "sj_mk_mc": "配置中心管理",
      "mk_rk": null,
      "px": 8,
      "mk_code": "basicService_zk",
      "xg_sj": 1533631445000,
      "tb": "fa fa-id-card",
      "mk_id": 117,
      "cr_sj": 1533631415000,
      "bz": "ZK管理",
      "sj_mk_id": 102
    },
    {
      "xg_id": null,
      "cr_id": null,
      "sc_bs": "0",
      "mk_mc": "基础服务管理1",
      "sj_mk_mc": "基础服务管理",
      "mk_rk": "adfasdfasdfasdfasdfasd1111",
      "px": 1,
      "mk_code": null,
      "xg_sj": 1544699116000,
      "tb": "fa-list-alt",
      "mk_id": 122,
      "cr_sj": 1544698991000,
      "bz": "基础服务管理1",
      "sj_mk_id": 3
    }
  ],
  "totalPage": 3,
  "msgDetail": null,
  "pageSize": 10,
  "paging": null,
  "sort": null,
  "pageTo": 10,
  "pageFrom": 1,
  "total": 29,
  "msgContent": null,
  "pageIndex": 1,
  "sortType": null,
  "order": null,
  "status": 0
}