{
  "orderType": null,
  "extendid": null,
  "leftover": 10,
  "msgType": "success",
  "data": null,
  "datas": [
    {
      "xg_id": null,
      "sc_bs": "0",
      "cr_id": "2",
      "js_mc": "admin",
      "bz": "管理员13",
      "js_lx": "0",
      "js_id": 1,
      "xg_sj": 1545123746000,
      "cr_sj": 1494831514000
    },
    {
      "xg_id": "admin",
      "sc_bs": "0",
      "cr_id": "xuweiwei",
      "js_mc": "医保办",
      "bz": "医保办",
      "js_lx": "1",
      "js_id": 2,
      "xg_sj": 1536127239000,
      "cr_sj": 1504145677000
    },
    {
      "xg_id": "admin",
      "sc_bs": "0",
      "cr_id": "xuweiwei",
      "js_mc": "医生",
      "bz": "医生",
      "js_lx": "1",
      "js_id": 3,
      "xg_sj": 1536127222000,
      "cr_sj": 1508394084000
    },
    {
      "xg_id": "admin",
      "sc_bs": "0",
      "cr_id": "admin",
      "js_mc": "测试管理员",
      "bz": "8877永远永远",
      "js_lx": "1",
      "js_id": 13,
      "xg_sj": 1544694323000,
      "cr_sj": 1544694323000
    },
    {
      "xg_id": "admin",
      "sc_bs": "0",
      "cr_id": "admin",
      "js_mc": "黄理解111",
      "bz": "黄理解222",
      "js_lx": "1",
      "js_id": 14,
      "xg_sj": 1544694380000,
      "cr_sj": 1544694380000
    },
    {
      "xg_id": "admin",
      "sc_bs": "0",
      "cr_id": "admin",
      "js_mc": "1111",
      "bz": "2222",
      "js_lx": "1",
      "js_id": 15,
      "xg_sj": 1544694393000,
      "cr_sj": 1544694393000
    },
    {
      "xg_id": null,
      "sc_bs": "0",
      "cr_id": null,
      "js_mc": "1111111111",
      "bz": "2222222222222222222222222222222222222222222222222222222222222222222222222222222222222222222222222222",
      "js_lx": "1",
      "js_id": 16,
      "xg_sj": 1544697888000,
      "cr_sj": 1544697888000
    },
    {
      "xg_id": null,
      "sc_bs": "0",
      "cr_id": null,
      "js_mc": null,
      "bz": null,
      "js_lx": "1",
      "js_id": 17,
      "xg_sj": 1544699238000,
      "cr_sj": 1544699238000
    },
    {
      "xg_id": null,
      "sc_bs": "0",
      "cr_id": null,
      "js_mc": "test",
      "bz": "111",
      "js_lx": "1",
      "js_id": 18,
      "xg_sj": 1544780004000,
      "cr_sj": 1544780004000
    },
    {
      "xg_id": "admin",
      "sc_bs": "0",
      "cr_id": "admin",
      "js_mc": "1112",
      "bz": "2221",
      "js_lx": "1",
      "js_id": 19,
      "xg_sj": 1544781646000,
      "cr_sj": 1544781646000
    }
  ],
  "totalPage": 3,
  "msgDetail": null,
  "pageSize": 10,
  "paging": null,
  "sort": null,
  "pageTo": 10,
  "pageFrom": 1,
  "total": 24,
  "msgContent": null,
  "pageIndex": 1,
  "sortType": null,
  "order": null,
  "status": 0
}