{
  "orderType": null,
  "extendid": null,
  "leftover": 10,
  "msgType": "success",
  "data": null,
  "datas": [
    {
      "xg_id": null,
      "cr_id": "admin",
      "sc_bs": "0",
      "dh": "123",
      "py": "admin",
      "yh_mm": "6461ba83b2d25961f7b6d4b5152897b9",
      "xg_sj": 1557297911000,
      "cr_sj": 1494813302000,
      "yh_id": 1,
      "xm": "11111111112",
      "org_id": null,
      "qyzt": "1",
      "bz": "55555",
      "zw": "231",
      "yh_mc": "aiyingya",
      "yx": "winning@qq.com"
    },
    {
      "xg_id": "aiyingya",
      "cr_id": "test",
      "sc_bs": "0",
      "dh": null,
      "py": "拼音",
      "yh_mm": "e0309004f4b93a16f42784c70e7452edf7b6d4b5152897b9",
      "xg_sj": 1557988283000,
      "cr_sj": 1532495930000,
      "yh_id": 31,
      "xm": "ads1",
      "org_id": null,
      "qyzt": "1",
      "bz": "备注",
      "zw": "ada",
      "yh_mc": "用户名",
      "yx": "123@qq.com"
    },
    {
      "xg_id": "aiyingya",
      "cr_id": "admin",
      "sc_bs": "0",
      "dh": "52415200",
      "py": "HYX001",
      "yh_mm": "a9abc33f54f27eb1",
      "xg_sj": 1557974539000,
      "cr_sj": 1545040776000,
      "yh_id": 69,
      "xm": "cwc",
      "org_id": null,
      "qyzt": "1",
      "bz": "123",
      "zw": "234",
      "yh_mc": "cwc",
      "yx": null
    },
    {
      "xg_id": "aiyingya",
      "cr_id": "admin",
      "sc_bs": "0",
      "dh": "52415002",
      "py": "HYX1009",
      "yh_mm": "a9abc33f54f27eb1",
      "xg_sj": 1557988298000,
      "cr_sj": 1545097959000,
      "yh_id": 70,
      "xm": "HYX10091",
      "org_id": null,
      "qyzt": "1",
      "bz": "HYX1009",
      "zw": null,
      "yh_mc": "HYX1009",
      "yx": "7895623@qq.com"
    },
    {
      "xg_id": null,
      "cr_id": null,
      "sc_bs": "0",
      "dh": "123",
      "py": "admin878",
      "yh_mm": "bb6aa2d5b7460ea0",
      "xg_sj": 1557041403000,
      "cr_sj": 1555579470000,
      "yh_id": 73,
      "xm": "admin",
      "org_id": null,
      "qyzt": "1",
      "bz": null,
      "zw": "231",
      "yh_mc": "admin32",
      "yx": "2"
    },
    {
      "xg_id": null,
      "cr_id": null,
      "sc_bs": "0",
      "dh": "2",
      "py": "1",
      "yh_mm": "73546369ec672d68",
      "xg_sj": 1557049303000,
      "cr_sj": 1557049303000,
      "yh_id": 80,
      "xm": "11",
      "org_id": null,
      "qyzt": "1",
      "bz": "4",
      "zw": "243",
      "yh_mc": "111",
      "yx": "3"
    },
    {
      "xg_id": "admin",
      "cr_id": "admin",
      "sc_bs": "0",
      "dh": "5",
      "py": "3",
      "yh_mm": "vjgj68698779vn879",
      "xg_sj": 1557122406000,
      "cr_sj": 1558591193000,
      "yh_id": 83,
      "xm": "9",
      "org_id": null,
      "qyzt": "1",
      "bz": "6",
      "zw": "346",
      "yh_mc": "admin",
      "yx": "3"
    },
    {
      "xg_id": null,
      "cr_id": null,
      "sc_bs": "0",
      "dh": null,
      "py": null,
      "yh_mm": "a0d0969f7ae9ae68",
      "xg_sj": 1557136431000,
      "cr_sj": 1557136431000,
      "yh_id": 86,
      "xm": "44",
      "org_id": null,
      "qyzt": "0",
      "bz": null,
      "zw": "243",
      "yh_mc": "555",
      "yx": null
    },
    {
      "xg_id": null,
      "cr_id": null,
      "sc_bs": "0",
      "dh": null,
      "py": null,
      "yh_mm": "344eb743b2ca33f6",
      "xg_sj": 1557137038000,
      "cr_sj": 1557137038000,
      "yh_id": 87,
      "xm": "4534",
      "org_id": null,
      "qyzt": "1",
      "bz": null,
      "zw": null,
      "yh_mc": "555243",
      "yx": null
    },
    {
      "xg_id": null,
      "cr_id": null,
      "sc_bs": "0",
      "dh": null,
      "py": null,
      "yh_mm": "5020e625c92cda3f",
      "xg_sj": 1557221296000,
      "cr_sj": 1557221296000,
      "yh_id": 88,
      "xm": "24",
      "org_id": null,
      "qyzt": "1",
      "bz": null,
      "zw": null,
      "yh_mc": "2",
      "yx": null
    }
  ],
  "totalPage": 3,
  "msgDetail": null,
  "pageSize": 10,
  "paging": null,
  "sort": null,
  "pageTo": 10,
  "pageFrom": 1,
  "total": 25,
  "msgContent": null,
  "pageIndex": 1,
  "sortType": null,
  "order": null,
  "status": 0
}