{
  "status": 0,
  "pageFrom": 10,
  "pageTo": 20,
  "total": 90,
  "pageIndex": 2,
  "totalPage": 9,
  "pageSize": 10,
  "datas": [
    {
      "js_id": "1",
      "js_mc": "角色A",
      "js_lx": "管理員",
      "bz": "沒有備注"
    },
    {
      "js_id": "2",
      "js_mc": "角色b",
      "js_lx": "管理員",
      "bz": "沒有備注"
    }
  ]
}