{
  "status": 0,
  "pageFrom": 10,
  "pageTo": 20,
  "total": 90,
  "pageIndex": 1,
  "totalPage": 9,
  "pageSize": 10,
  "datas": [
    {
      "": 3,
      "zd_lx": "XB",
      "zd_lx_mc": "性别",
      "zd_sx": "1",
      "zd_mc": "男",
      "zd_z": "0",
      "ys_z": "0",
      "ys_bs": "0",
      "fl_bs": "1",
      "bz": "0"
    },
    {
      "zd_id": 1,
      "zd_lx": "XB",
      "zd_lx_mc": "性别",
      "zd_sx": "1",
      "zd_mc": "男",
      "zd_z": "0",
      "ys_z": "0",
      "ys_bs": "0",
      "fl_bs": "0",
      "bz": "0"
    },
    {
      "zd_id": 2,
      "zd_lx": "XB",
      "zd_lx_mc": "性别",
      "zd_sx": "2",
      "zd_mc": "女",
      "zd_z": "0",
      "ys_z": "0",
      "ys_bs": "0",
      "fl_bs": "0",
      "bz": "0"
    },
    {
      "zd_id": 4,
      "zd_lx": "XB",
      "zd_lx_mc": "性别",
      "zd_sx": "2",
      "zd_mc": "女",
      "zd_z": "0",
      "ys_z": "0",
      "ys_bs": "0",
      "fl_bs": "0",
      "bz": "0"
    },
    {
      "zd_id": 5,
      "zd_lx": "XB",
      "zd_lx_mc": "性别",
      "zd_sx": "2",
      "zd_mc": "女",
      "zd_z": "0",
      "ys_z": "0",
      "ys_bs": "0",
      "fl_bs": "0",
      "bz": "0"
    },
    {
      "zd_id": 5,
      "zd_lx": "XB",
      "zd_lx_mc": "性别",
      "zd_sx": "2",
      "zd_mc": "男",
      "zd_z": "0",
      "ys_z": "0",
      "ys_bs": "0",
      "fl_bs": "0",
      "bz": "0"
    },
    {
      "zd_id": 6,
      "zd_lx": "XB",
      "zd_lx_mc": "性别",
      "zd_sx": "2",
      "zd_mc": "男",
      "zd_z": "0",
      "ys_z": "0",
      "ys_bs": "0",
      "fl_bs": "0",
      "bz": "0"
    },
    {
      "zd_id": 7,
      "zd_lx": "XB",
      "zd_lx_mc": "性别",
      "zd_sx": "2",
      "zd_mc": "女",
      "zd_z": "0",
      "ys_z": "0",
      "ys_bs": "0",
      "fl_bs": "0",
      "bz": "0"
    },
    {
      "zd_id": 8,
      "zd_lx": "XB",
      "zd_lx_mc": "性别",
      "zd_sx": "2",
      "zd_mc": "女",
      "zd_z": "0",
      "ys_z": "0",
      "ys_bs": "0",
      "fl_bs": "0",
      "bz": "0"
    },
    {
      "zd_id": 9,
      "zd_lx": "XB",
      "zd_lx_mc": "性别",
      "zd_sx": "2",
      "zd_mc": "女",
      "zd_z": "0",
      "ys_z": "0",
      "ys_bs": "0",
      "fl_bs": "0",
      "bz": "0"
    },
    {
      "zd_id": 10,
      "zd_lx": "XB",
      "zd_lx_mc": "性别",
      "zd_sx": "2",
      "zd_mc": "女",
      "zd_z": "0",
      "ys_z": "0",
      "ys_bs": "0",
      "fl_bs": "0",
      "bz": "0"
    },
    {
      "zd_id": 11,
      "zd_lx": "XB",
      "zd_lx_mc": "性别",
      "zd_sx": "2",
      "zd_mc": "女",
      "zd_z": "0",
      "ys_z": "0",
      "ys_bs": "0",
      "fl_bs": "0",
      "bz": "0"
    },
    {
      "zd_id": 12,
      "zd_lx": "XB",
      "zd_lx_mc": "性别",
      "zd_sx": "2",
      "zd_mc": "女",
      "zd_z": "0",
      "ys_z": "0",
      "ys_bs": "0",
      "fl_bs": "0",
      "bz": "0"
    },
    {
      "zd_id": 13,
      "zd_lx": "XB",
      "zd_lx_mc": "性别",
      "zd_sx": "2",
      "zd_mc": "女",
      "zd_z": "0",
      "ys_z": "0",
      "ys_bs": "0",
      "fl_bs": "0",
      "bz": "0"
    },
    {
      "zd_id": 14,
      "zd_lx": "XB",
      "zd_lx_mc": "性别",
      "zd_sx": "2",
      "zd_mc": "女",
      "zd_z": "0",
      "ys_z": "0",
      "ys_bs": "0",
      "fl_bs": "0",
      "bz": "0"
    },
    {
      "zd_id": 15,
      "zd_lx": "XB",
      "zd_lx_mc": "性别",
      "zd_sx": "2",
      "zd_mc": "女",
      "zd_z": "0",
      "ys_z": "0",
      "ys_bs": "0",
      "fl_bs": "0",
      "bz": "0"
    },
    {
      "zd_id": 16,
      "zd_lx": "XB",
      "zd_lx_mc": "性别",
      "zd_sx": "2",
      "zd_mc": "女",
      "zd_z": "0",
      "ys_z": "0",
      "ys_bs": "0",
      "fl_bs": "0",
      "bz": "0"
    },
    {
      "zd_id": 17,
      "zd_lx": "XB",
      "zd_lx_mc": "性别",
      "zd_sx": "2",
      "zd_mc": "女",
      "zd_z": "0",
      "ys_z": "0",
      "ys_bs": "0",
      "fl_bs": "0",
      "bz": "0"
    },
    {
      "zd_id": 18,
      "zd_lx": "XB",
      "zd_lx_mc": "性别",
      "zd_sx": "2",
      "zd_mc": "女",
      "zd_z": "0",
      "ys_z": "0",
      "ys_bs": "0",
      "fl_bs": "0",
      "bz": "0"
    },
    {
      "zd_id": 19,
      "zd_lx": "XB",
      "zd_lx_mc": "性别",
      "zd_sx": "2",
      "zd_mc": "女",
      "zd_z": "0",
      "ys_z": "0",
      "ys_bs": "0",
      "fl_bs": "0",
      "bz": "0"
    },
    {
      "zd_id": 20,
      "zd_lx": "XB",
      "zd_lx_mc": "性别",
      "zd_sx": "2",
      "zd_mc": "女",
      "zd_z": "0",
      "ys_z": "0",
      "ys_bs": "0",
      "fl_bs": "0",
      "bz": "0"
    },
    {
      "zd_id": 21,
      "zd_lx": "XB",
      "zd_lx_mc": "性别",
      "zd_sx": "2",
      "zd_mc": "女",
      "zd_z": "0",
      "ys_z": "0",
      "ys_bs": "0",
      "fl_bs": "0",
      "bz": "0"
    },
    {
      "zd_id": 22,
      "zd_lx": "XB",
      "zd_lx_mc": "性别",
      "zd_sx": "2",
      "zd_mc": "女",
      "zd_z": "0",
      "ys_z": "0",
      "ys_bs": "0",
      "fl_bs": "0",
      "bz": "0"
    },
    {
      "zd_id": 23,
      "zd_lx": "XB",
      "zd_lx_mc": "性别",
      "zd_sx": "2",
      "zd_mc": "女",
      "zd_z": "0",
      "ys_z": "0",
      "ys_bs": "0",
      "fl_bs": "0",
      "bz": "0"
    }
  ]
}